{
  "project_info": {
    "project_number": "362558968265",
    "project_id": "ridealong-3"
  },
  "client": [
    {
      "client_info": {
        "mobilesdk_app_id": "1:362558968265:android:ab042c9b020ab9d8",
        "android_client_info": {
          "package_name": "com.example.rahulsatya.ridealong_3"
        }
      },
      "oauth_client": [
        {
          "client_id": "362558968265-bsg94g930a9ou5r1o6fdaqb3u1hhaknv.apps.googleusercontent.com",
          "client_type": 3
        },
        {
          "client_id": "362558968265-jk4m3b429h8mr2ki27qf8mdjg85696re.apps.googleusercontent.com",
          "client_type": 1,
          "android_info": {
            "package_name": "com.example.rahulsatya.ridealong_3",
            "certificate_hash": "d11411f3958a601ef3cfcba251415cc784ba4eb9"
          }
        }
      ],
      "api_key": [
        {
          "current_key": "AIzaSyBEOW08_y1X4BIwQOEj0ZEnz3NeN0ltjyo"
        }
      ],
      "services": {
        "analytics_service": {
          "status": 1
        },
        "appinvite_service": {
          "status": 1,
          "other_platform_oauth_client": []
        },
        "ads_service": {
          "status": 1
        }
      }
    }
  ],
  "configuration_version": "1"
}